{
  "project_info": {
    "project_number": "670703595621",
    "firebase_url": "https://conecta-fapa.firebaseio.com",
    "project_id": "conecta-fapa",
    "storage_bucket": "conecta-fapa.appspot.com"
  },
  "client": [
    {
      "client_info": {
        "mobilesdk_app_id": "1:670703595621:android:f7cd54695943c85f57d68c",
        "android_client_info": {
          "package_name": "dev.bezerra.cadastro_pessoas"
        }
      },
      "oauth_client": [
        {
          "client_id": "670703595621-lnbkpqrkcfippc87jrjarhd61h7jqh20.apps.googleusercontent.com",
          "client_type": 1,
          "android_info": {
            "package_name": "dev.bezerra.cadastro_pessoas",
            "certificate_hash": "ecb638068fe7c8a9b521d85532e80d097eaf27f1"
          }
        },
        {
          "client_id": "670703595621-r29ag8cs4hgk6kqv2qmllsj00ukn2vob.apps.googleusercontent.com",
          "client_type": 3
        }
      ],
      "api_key": [
        {
          "current_key": "AIzaSyD_c1zUQ15_dqzeCQJruGOmVocWh_PGY7w"
        }
      ],
      "services": {
        "appinvite_service": {
          "other_platform_oauth_client": [
            {
              "client_id": "670703595621-r29ag8cs4hgk6kqv2qmllsj00ukn2vob.apps.googleusercontent.com",
              "client_type": 3
            }
          ]
        }
      }
    }
  ],
  "configuration_version": "1"
}